cell no	shape	velocity	health	date	flow rate	repeat
0.0	4.0	0.71	0.0	2016-11-04	0.01	2
1.0	2.0	0.773	0.0	2016-11-04	0.01	2
2.0	0.0	0.74	0.0	2016-11-04	0.01	2
3.0	2.0	0.804	0.0	2016-11-04	0.01	2
4.0	2.0	0.826	0.0	2016-11-04	0.01	2
5.0	0.0	0.84	0.0	2016-11-04	0.01	2
6.0	4.0	0.95	0.0	2016-11-04	0.01	2
7.0	3.0	0.956	0.0	2016-11-04	0.01	2
8.0	4.0	0.928	0.0	2016-11-04	0.01	2
9.0	3.0	0.938	0.0	2016-11-04	0.01	2
10.0	4.0	0.993	0.0	2016-11-04	0.01	2
11.0	0.0	0.99	0.0	2016-11-04	0.01	2
12.0	2.0	0.994	0.0	2016-11-04	0.01	2
13.0	0.0	1.03	0.0	2016-11-04	0.01	2
14.0	3.0	1.013	0.0	2016-11-04	0.01	2
15.0	2.0	0.999	0.0	2016-11-04	0.01	2
16.0	2.0	0.977	0.0	2016-11-04	0.01	2
17.0	3.0	0.912	0.0	2016-11-04	0.01	2
18.0	5.0	0.879	0.0	2016-11-04	0.01	2
19.0	0.0	0.94	0.0	2016-11-04	0.01	2
20.0	2.0	0.983	0.0	2016-11-04	0.01	2
21.0	2.0	0.949	0.0	2016-11-04	0.01	2
22.0	0.0	0.98	0.0	2016-11-04	0.01	2
23.0	0.0	1.02	0.0	2016-11-04	0.01	2
24.0	2.0	0.999	0.0	2016-11-04	0.01	2
25.0	3.0	0.985	0.0	2016-11-04	0.01	2
26.0	3.0	1.0	0.0	2016-11-04	0.01	2
27.0	0.0	1.04	0.0	2016-11-04	0.01	2
28.0	2.0	1.057	0.0	2016-11-04	0.01	2
29.0	2.0	1.055	0.0	2016-11-04	0.01	2
30.0	2.0	1.033	0.0	2016-11-04	0.01	2
31.0	3.0	0.979	0.0	2016-11-04	0.01	2
32.0	0.0	0.94	0.0	2016-11-04	0.01	2
33.0	0.0	0.94	0.0	2016-11-04	0.01	2
34.0	3.0	0.949	0.0	2016-11-04	0.01	2
35.0	2.0	1.003	0.0	2016-11-04	0.01	2
36.0	4.0	0.956	0.0	2016-11-04	0.01	2
37.0	3.0	0.912	0.0	2016-11-04	0.01	2
38.0	3.0	0.903	0.0	2016-11-04	0.01	2
39.0	0.0	0.95	0.0	2016-11-04	0.01	2
40.0	3.0	0.91	0.0	2016-11-04	0.01	2
41.0	2.0	0.946	0.0	2016-11-04	0.01	2
42.0	0.0	0.94	0.0	2016-11-04	0.01	2
43.0	2.0	0.967	0.0	2016-11-04	0.01	2
44.0	2.0	0.932	0.0	2016-11-04	0.01	2
45.0	2.0	0.938	0.0	2016-11-04	0.01	2
46.0	2.0	0.943	0.0	2016-11-04	0.01	2
47.0	2.0	0.943	0.0	2016-11-04	0.01	2
48.0	2.0	0.936	0.0	2016-11-04	0.01	2
49.0	1.0	0.926	0.0	2016-11-04	0.01	2
50.0	2.0	0.962	0.0	2016-11-04	0.01	2
51.0	3.0	0.955	0.0	2016-11-04	0.01	2
0.0	3.0	1.199	0.0	2016-11-04	0.018	2
1.0	3.0	1.235	0.0	2016-11-04	0.018	2
2.0	3.0	1.311	0.0	2016-11-04	0.018	2
3.0	3.0	1.365	0.0	2016-11-04	0.018	2
4.0	3.0	1.413	0.0	2016-11-04	0.018	2
5.0	3.0	1.352	0.0	2016-11-04	0.018	2
6.0	0.0	1.46	0.0	2016-11-04	0.018	2
7.0	3.0	1.522	0.0	2016-11-04	0.018	2
8.0	2.0	1.589	0.0	2016-11-04	0.018	2
9.0	3.0	1.561	0.0	2016-11-04	0.018	2
10.0	1.0	1.612	0.0	2016-11-04	0.018	2
11.0	2.0	1.597	0.0	2016-11-04	0.018	2
12.0	3.0	1.611	0.0	2016-11-04	0.018	2
13.0	2.0	1.512	0.0	2016-11-04	0.018	2
14.0	3.0	1.649	0.0	2016-11-04	0.018	2
15.0	3.0	1.651	0.0	2016-11-04	0.018	2
16.0	3.0	1.687	0.0	2016-11-04	0.018	2
17.0	5.0	1.657	0.0	2016-11-04	0.018	2
18.0	2.0	1.724	0.0	2016-11-04	0.018	2
19.0	2.0	1.788	0.0	2016-11-04	0.018	2
20.0	1.0	1.714	0.0	2016-11-04	0.018	2
21.0	3.0	1.684	0.0	2016-11-04	0.018	2
22.0	0.0	1.7	0.0	2016-11-04	0.018	2
23.0	2.0	1.728	0.0	2016-11-04	0.018	2
24.0	3.0	1.745	0.0	2016-11-04	0.018	2
25.0	3.0	1.791	0.0	2016-11-04	0.018	2
26.0	3.0	1.732	0.0	2016-11-04	0.018	2
27.0	3.0	1.79	0.0	2016-11-04	0.018	2
28.0	3.0	1.779	0.0	2016-11-04	0.018	2
29.0	1.0	1.784	0.0	2016-11-04	0.018	2
30.0	3.0	1.757	0.0	2016-11-04	0.018	2
31.0	3.0	1.807	0.0	2016-11-04	0.018	2
32.0	3.0	1.82	0.0	2016-11-04	0.018	2
33.0	3.0	1.821	0.0	2016-11-04	0.018	2
34.0	2.0	1.883	0.0	2016-11-04	0.018	2
35.0	1.0	1.801	0.0	2016-11-04	0.018	2
36.0	1.0	1.836	0.0	2016-11-04	0.018	2
37.0	3.0	1.865	0.0	2016-11-04	0.018	2
38.0	2.0	1.893	0.0	2016-11-04	0.018	2
39.0	2.0	1.916	0.0	2016-11-04	0.018	2
40.0	0.0	1.87	0.0	2016-11-04	0.018	2
41.0	3.0	1.836	0.0	2016-11-04	0.018	2
42.0	2.0	1.887	0.0	2016-11-04	0.018	2
43.0	0.0	1.86	0.0	2016-11-04	0.018	2
44.0	2.0	1.857	0.0	2016-11-04	0.018	2
45.0	3.0	1.787	0.0	2016-11-04	0.018	2
46.0	3.0	1.791	0.0	2016-11-04	0.018	2
47.0	0.0	1.86	0.0	2016-11-04	0.018	2
48.0	3.0	1.818	0.0	2016-11-04	0.018	2
49.0	3.0	1.857	0.0	2016-11-04	0.018	2
50.0	3.0	1.829	0.0	2016-11-04	0.018	2
51.0	3.0	1.768	0.0	2016-11-04	0.018	2
52.0	3.0	1.861	0.0	2016-11-04	0.018	2
53.0	1.0	1.818	0.0	2016-11-04	0.018	2
54.0	3.0	1.812	0.0	2016-11-04	0.018	2
55.0	0.0	1.83	0.0	2016-11-04	0.018	2
56.0	1.0	1.809	0.0	2016-11-04	0.018	2
57.0	3.0	1.837	0.0	2016-11-04	0.018	2
58.0	3.0	1.846	0.0	2016-11-04	0.018	2
59.0	0.0	1.9	0.0	2016-11-04	0.018	2
60.0	3.0	1.871	0.0	2016-11-04	0.018	2
61.0	1.0	1.856	0.0	2016-11-04	0.018	2
62.0	0.0	1.89	0.0	2016-11-04	0.018	2
63.0	1.0	1.9	0.0	2016-11-04	0.018	2
0.0	1.0	2.023	0.0	2016-11-04	0.02	2
1.0	1.0	2.08	0.0	2016-11-04	0.02	2
2.0	3.0	2.128	0.0	2016-11-04	0.02	2
3.0	1.0	2.068	0.0	2016-11-04	0.02	2
4.0	3.0	2.096	0.0	2016-11-04	0.02	2
5.0	3.0	2.077	0.0	2016-11-04	0.02	2
6.0	3.0	2.131	0.0	2016-11-04	0.02	2
7.0	3.0	2.062	0.0	2016-11-04	0.02	2
8.0	3.0	2.039	0.0	2016-11-04	0.02	2
9.0	1.0	2.072	0.0	2016-11-04	0.02	2
10.0	3.0	2.08	0.0	2016-11-04	0.02	2
11.0	3.0	2.212	0.0	2016-11-04	0.02	2
12.0	3.0	2.085	0.0	2016-11-04	0.02	2
13.0	1.0	2.078	0.0	2016-11-04	0.02	2
14.0	3.0	2.15	0.0	2016-11-04	0.02	2
15.0	1.0	2.12	0.0	2016-11-04	0.02	2
16.0	3.0	2.09	0.0	2016-11-04	0.02	2
17.0	3.0	2.18	0.0	2016-11-04	0.02	2
18.0	1.0	2.161	0.0	2016-11-04	0.02	2
19.0	3.0	2.115	0.0	2016-11-04	0.02	2
20.0	1.0	2.105	0.0	2016-11-04	0.02	2
21.0	3.0	2.168	0.0	2016-11-04	0.02	2
22.0	1.0	2.138	0.0	2016-11-04	0.02	2
23.0	2.0	2.183	0.0	2016-11-04	0.02	2
24.0	3.0	2.194	0.0	2016-11-04	0.02	2
25.0	0.0	2.14	0.0	2016-11-04	0.02	2
26.0	1.0	2.144	0.0	2016-11-04	0.02	2
27.0	5.0	2.105	0.0	2016-11-04	0.02	2
28.0	3.0	2.097	0.0	2016-11-04	0.02	2
29.0	3.0	2.123	0.0	2016-11-04	0.02	2
30.0	3.0	2.113	0.0	2016-11-04	0.02	2
31.0	0.0	2.14	0.0	2016-11-04	0.02	2
32.0	3.0	2.159	0.0	2016-11-04	0.02	2
33.0	0.0	2.19	0.0	2016-11-04	0.02	2
34.0	3.0	2.209	0.0	2016-11-04	0.02	2
35.0	3.0	2.209	0.0	2016-11-04	0.02	2
36.0	1.0	2.204	0.0	2016-11-04	0.02	2
37.0	1.0	2.236	0.0	2016-11-04	0.02	2
38.0	1.0	2.239	0.0	2016-11-04	0.02	2
39.0	3.0	2.248	0.0	2016-11-04	0.02	2
40.0	0.0	2.28	0.0	2016-11-04	0.02	2
41.0	3.0	2.266	0.0	2016-11-04	0.02	2
42.0	1.0	2.283	0.0	2016-11-04	0.02	2
43.0	1.0	2.214	0.0	2016-11-04	0.02	2
44.0	1.0	2.229	0.0	2016-11-04	0.02	2
45.0	2.0	2.318	0.0	2016-11-04	0.02	2
46.0	3.0	2.213	0.0	2016-11-04	0.02	2
47.0	3.0	2.226	0.0	2016-11-04	0.02	2
48.0	3.0	2.264	0.0	2016-11-04	0.02	2
49.0	1.0	2.246	0.0	2016-11-04	0.02	2
50.0	2.0	2.337	0.0	2016-11-04	0.02	2
51.0	3.0	2.225	0.0	2016-11-04	0.02	2
52.0	4.0	2.295	0.0	2016-11-04	0.02	2
53.0	3.0	2.35	0.0	2016-11-04	0.02	2
54.0	3.0	2.188	0.0	2016-11-04	0.02	2
55.0	3.0	2.18	0.0	2016-11-04	0.02	2
56.0	2.0	2.267	0.0	2016-11-04	0.02	2
0.0	3.0	2.193	0.0	2016-11-04	0.022	2
1.0	3.0	2.197	0.0	2016-11-04	0.022	2
2.0	1.0	2.214	0.0	2016-11-04	0.022	2
3.0	3.0	2.259	0.0	2016-11-04	0.022	2
4.0	3.0	2.27	0.0	2016-11-04	0.022	2
5.0	3.0	2.306	0.0	2016-11-04	0.022	2
6.0	1.0	2.291	0.0	2016-11-04	0.022	2
7.0	2.0	2.363	0.0	2016-11-04	0.022	2
8.0	2.0	2.318	0.0	2016-11-04	0.022	2
9.0	2.0	2.368	0.0	2016-11-04	0.022	2
10.0	3.0	2.311	0.0	2016-11-04	0.022	2
11.0	3.0	2.331	0.0	2016-11-04	0.022	2
12.0	1.0	2.341	0.0	2016-11-04	0.022	2
13.0	1.0	2.308	0.0	2016-11-04	0.022	2
14.0	3.0	2.27	0.0	2016-11-04	0.022	2
15.0	1.0	2.268	0.0	2016-11-04	0.022	2
16.0	1.0	2.34	0.0	2016-11-04	0.022	2
17.0	1.0	2.294	0.0	2016-11-04	0.022	2
18.0	5.0	2.249	0.0	2016-11-04	0.022	2
19.0	1.0	2.308	0.0	2016-11-04	0.022	2
20.0	1.0	2.332	0.0	2016-11-04	0.022	2
21.0	3.0	2.291	0.0	2016-11-04	0.022	2
22.0	2.0	2.401	0.0	2016-11-04	0.022	2
23.0	1.0	2.364	0.0	2016-11-04	0.022	2
24.0	3.0	2.294	0.0	2016-11-04	0.022	2
25.0	3.0	2.335	0.0	2016-11-04	0.022	2
26.0	0.0	2.27	0.0	2016-11-04	0.022	2
27.0	0.0	2.42	0.0	2016-11-04	0.022	2
28.0	3.0	2.341	0.0	2016-11-04	0.022	2
29.0	3.0	2.329	0.0	2016-11-04	0.022	2
30.0	1.0	2.299	0.0	2016-11-04	0.022	2
31.0	2.0	2.371	0.0	2016-11-04	0.022	2
32.0	1.0	2.393	0.0	2016-11-04	0.022	2
33.0	1.0	2.401	0.0	2016-11-04	0.022	2
34.0	3.0	2.359	0.0	2016-11-04	0.022	2
35.0	1.0	2.362	0.0	2016-11-04	0.022	2
36.0	3.0	2.44	0.0	2016-11-04	0.022	2
37.0	1.0	2.344	0.0	2016-11-04	0.022	2
38.0	2.0	2.442	0.0	2016-11-04	0.022	2
39.0	1.0	2.376	0.0	2016-11-04	0.022	2
40.0	0.0	2.44	0.0	2016-11-04	0.022	2
41.0	3.0	2.406	0.0	2016-11-04	0.022	2
42.0	0.0	2.38	0.0	2016-11-04	0.022	2
43.0	3.0	2.388	0.0	2016-11-04	0.022	2
44.0	3.0	2.387	0.0	2016-11-04	0.022	2
45.0	1.0	2.38	0.0	2016-11-04	0.022	2
46.0	1.0	2.388	0.0	2016-11-04	0.022	2
47.0	3.0	2.348	0.0	2016-11-04	0.022	2
48.0	3.0	2.336	0.0	2016-11-04	0.022	2
49.0	3.0	2.291	0.0	2016-11-04	0.022	2
50.0	1.0	2.352	0.0	2016-11-04	0.022	2
51.0	1.0	2.382	0.0	2016-11-04	0.022	2
52.0	1.0	2.32	0.0	2016-11-04	0.022	2
53.0	2.0	2.222	0.0	2016-11-04	0.022	2
54.0	1.0	2.249	0.0	2016-11-04	0.022	2
55.0	3.0	2.406	0.0	2016-11-04	0.022	2
56.0	3.0	2.386	0.0	2016-11-04	0.022	2
57.0	3.0	2.347	0.0	2016-11-04	0.022	2
58.0	3.0	2.322	0.0	2016-11-04	0.022	2
59.0	3.0	2.392	0.0	2016-11-04	0.022	2
60.0	4.0	2.348	0.0	2016-11-04	0.022	2
61.0	1.0	2.355	0.0	2016-11-04	0.022	2
0.0	3.0	2.326	0.0	2016-11-04	0.024	2
1.0	1.0	2.343	0.0	2016-11-04	0.024	2
2.0	3.0	2.337	0.0	2016-11-04	0.024	2
3.0	5.0	2.325	0.0	2016-11-04	0.024	2
4.0	3.0	2.354	0.0	2016-11-04	0.024	2
5.0	3.0	2.313	0.0	2016-11-04	0.024	2
6.0	1.0	2.388	0.0	2016-11-04	0.024	2
7.0	3.0	2.385	0.0	2016-11-04	0.024	2
8.0	1.0	2.302	0.0	2016-11-04	0.024	2
9.0	3.0	2.436	0.0	2016-11-04	0.024	2
10.0	3.0	2.522	0.0	2016-11-04	0.024	2
11.0	3.0	2.4	0.0	2016-11-04	0.024	2
12.0	0.0	2.47	0.0	2016-11-04	0.024	2
13.0	3.0	2.411	0.0	2016-11-04	0.024	2
14.0	1.0	2.386	0.0	2016-11-04	0.024	2
15.0	4.0	2.44	0.0	2016-11-04	0.024	2
16.0	3.0	2.47	0.0	2016-11-04	0.024	2
17.0	1.0	2.392	0.0	2016-11-04	0.024	2
18.0	1.0	2.503	0.0	2016-11-04	0.024	2
19.0	3.0	2.49	0.0	2016-11-04	0.024	2
20.0	3.0	2.492	0.0	2016-11-04	0.024	2
21.0	1.0	2.497	0.0	2016-11-04	0.024	2
22.0	3.0	2.523	0.0	2016-11-04	0.024	2
23.0	1.0	2.42	0.0	2016-11-04	0.024	2
24.0	3.0	2.481	0.0	2016-11-04	0.024	2
25.0	3.0	2.541	0.0	2016-11-04	0.024	2
26.0	1.0	2.555	0.0	2016-11-04	0.024	2
27.0	3.0	2.517	0.0	2016-11-04	0.024	2
28.0	5.0	2.45	0.0	2016-11-04	0.024	2
29.0	5.0	2.519	0.0	2016-11-04	0.024	2
30.0	1.0	2.505	0.0	2016-11-04	0.024	2
31.0	3.0	2.479	0.0	2016-11-04	0.024	2
32.0	1.0	2.458	0.0	2016-11-04	0.024	2
33.0	1.0	2.56	0.0	2016-11-04	0.024	2
34.0	3.0	2.55	0.0	2016-11-04	0.024	2
35.0	3.0	2.555	0.0	2016-11-04	0.024	2
36.0	0.0	2.55	0.0	2016-11-04	0.024	2
37.0	3.0	2.449	0.0	2016-11-04	0.024	2
38.0	3.0	2.531	0.0	2016-11-04	0.024	2
39.0	3.0	2.471	0.0	2016-11-04	0.024	2
40.0	3.0	2.511	0.0	2016-11-04	0.024	2
41.0	3.0	2.486	0.0	2016-11-04	0.024	2
42.0	5.0	2.489	0.0	2016-11-04	0.024	2
43.0	1.0	2.47	0.0	2016-11-04	0.024	2
44.0	3.0	2.544	0.0	2016-11-04	0.024	2
45.0	3.0	2.457	0.0	2016-11-04	0.024	2
46.0	3.0	2.562	0.0	2016-11-04	0.024	2
47.0	3.0	2.529	0.0	2016-11-04	0.024	2
48.0	5.0	2.501	0.0	2016-11-04	0.024	2
49.0	3.0	2.588	0.0	2016-11-04	0.024	2
50.0	1.0	2.463	0.0	2016-11-04	0.024	2
51.0	5.0	2.513	0.0	2016-11-04	0.024	2
52.0	3.0	2.544	0.0	2016-11-04	0.024	2
53.0	1.0	2.444	0.0	2016-11-04	0.024	2
54.0	1.0	2.534	0.0	2016-11-04	0.024	2
55.0	1.0	2.503	0.0	2016-11-04	0.024	2
0.0	2.0	2.665	0.0	2016-11-04	0.026	2
1.0	3.0	2.613	0.0	2016-11-04	0.026	2
2.0	5.0	2.446	0.0	2016-11-04	0.026	2
3.0	1.0	2.56	0.0	2016-11-04	0.026	2
4.0	1.0	2.717	0.0	2016-11-04	0.026	2
5.0	1.0	2.583	0.0	2016-11-04	0.026	2
6.0	3.0	2.551	0.0	2016-11-04	0.026	2
7.0	3.0	2.586	0.0	2016-11-04	0.026	2
8.0	1.0	2.636	0.0	2016-11-04	0.026	2
9.0	1.0	2.567	0.0	2016-11-04	0.026	2
10.0	3.0	2.672	0.0	2016-11-04	0.026	2
11.0	1.0	2.595	0.0	2016-11-04	0.026	2
12.0	3.0	2.576	0.0	2016-11-04	0.026	2
13.0	5.0	2.644	0.0	2016-11-04	0.026	2
14.0	3.0	2.651	0.0	2016-11-04	0.026	2
15.0	2.0	2.684	0.0	2016-11-04	0.026	2
16.0	3.0	2.603	0.0	2016-11-04	0.026	2
17.0	3.0	2.632	0.0	2016-11-04	0.026	2
18.0	1.0	2.575	0.0	2016-11-04	0.026	2
19.0	1.0	2.59	0.0	2016-11-04	0.026	2
20.0	1.0	2.681	0.0	2016-11-04	0.026	2
21.0	3.0	2.655	0.0	2016-11-04	0.026	2
22.0	0.0	2.64	0.0	2016-11-04	0.026	2
23.0	5.0	2.652	0.0	2016-11-04	0.026	2
24.0	3.0	2.748	0.0	2016-11-04	0.026	2
25.0	3.0	2.732	0.0	2016-11-04	0.026	2
26.0	1.0	2.643	0.0	2016-11-04	0.026	2
27.0	3.0	2.802	0.0	2016-11-04	0.026	2
28.0	1.0	2.717	0.0	2016-11-04	0.026	2
29.0	1.0	2.817	0.0	2016-11-04	0.026	2
30.0	1.0	2.755	0.0	2016-11-04	0.026	2
31.0	3.0	2.803	0.0	2016-11-04	0.026	2
32.0	3.0	2.772	0.0	2016-11-04	0.026	2
33.0	5.0	2.495	0.0	2016-11-04	0.026	2
34.0	1.0	2.795	0.0	2016-11-04	0.026	2
35.0	3.0	2.847	0.0	2016-11-04	0.026	2
36.0	3.0	2.775	0.0	2016-11-04	0.026	2
37.0	3.0	2.693	0.0	2016-11-04	0.026	2
38.0	3.0	2.722	0.0	2016-11-04	0.026	2
39.0	1.0	2.733	0.0	2016-11-04	0.026	2
40.0	3.0	2.798	0.0	2016-11-04	0.026	2
41.0	3.0	2.694	0.0	2016-11-04	0.026	2
42.0	3.0	2.751	0.0	2016-11-04	0.026	2
43.0	3.0	2.715	0.0	2016-11-04	0.026	2
44.0	1.0	2.764	0.0	2016-11-04	0.026	2
45.0	3.0	2.729	0.0	2016-11-04	0.026	2
46.0	2.0	2.879	0.0	2016-11-04	0.026	2
47.0	3.0	2.852	0.0	2016-11-04	0.026	2
48.0	3.0	2.756	0.0	2016-11-04	0.026	2
49.0	1.0	2.785	0.0	2016-11-04	0.026	2
50.0	3.0	2.82	0.0	2016-11-04	0.026	2
51.0	1.0	2.727	0.0	2016-11-04	0.026	2
52.0	5.0	2.658	0.0	2016-11-04	0.026	2
53.0	3.0	2.8	0.0	2016-11-04	0.026	2
54.0	1.0	2.692	0.0	2016-11-04	0.026	2
55.0	1.0	2.781	0.0	2016-11-04	0.026	2
56.0	0.0	2.89	0.0	2016-11-04	0.026	2
57.0	3.0	2.845	0.0	2016-11-04	0.026	2
58.0	1.0	2.792	0.0	2016-11-04	0.026	2
59.0	1.0	2.757	0.0	2016-11-04	0.026	2
60.0	5.0	2.818	0.0	2016-11-04	0.026	2
61.0	3.0	2.728	0.0	2016-11-04	0.026	2
0.0	3.0	2.923	0.0	2016-11-04	0.028	2
1.0	5.0	2.8	0.0	2016-11-04	0.028	2
2.0	3.0	2.882	0.0	2016-11-04	0.028	2
3.0	1.0	2.827	0.0	2016-11-04	0.028	2
4.0	1.0	2.9	0.0	2016-11-04	0.028	2
5.0	3.0	2.808	0.0	2016-11-04	0.028	2
6.0	1.0	2.917	0.0	2016-11-04	0.028	2
7.0	3.0	2.859	0.0	2016-11-04	0.028	2
8.0	3.0	2.849	0.0	2016-11-04	0.028	2
9.0	1.0	2.866	0.0	2016-11-04	0.028	2
10.0	3.0	2.882	0.0	2016-11-04	0.028	2
11.0	1.0	2.875	0.0	2016-11-04	0.028	2
12.0	3.0	2.884	0.0	2016-11-04	0.028	2
13.0	1.0	2.844	0.0	2016-11-04	0.028	2
14.0	3.0	2.876	0.0	2016-11-04	0.028	2
15.0	3.0	2.859	0.0	2016-11-04	0.028	2
16.0	1.0	2.879	0.0	2016-11-04	0.028	2
17.0	1.0	2.813	0.0	2016-11-04	0.028	2
18.0	3.0	2.852	0.0	2016-11-04	0.028	2
19.0	3.0	2.788	0.0	2016-11-04	0.028	2
20.0	3.0	2.925	0.0	2016-11-04	0.028	2
21.0	3.0	2.888	0.0	2016-11-04	0.028	2
22.0	3.0	2.814	0.0	2016-11-04	0.028	2
23.0	1.0	2.805	0.0	2016-11-04	0.028	2
24.0	1.0	2.87	0.0	2016-11-04	0.028	2
25.0	1.0	2.9	0.0	2016-11-04	0.028	2
26.0	3.0	2.833	0.0	2016-11-04	0.028	2
27.0	1.0	2.932	0.0	2016-11-04	0.028	2
28.0	1.0	2.904	0.0	2016-11-04	0.028	2
29.0	1.0	2.804	0.0	2016-11-04	0.028	2
30.0	5.0	2.928	0.0	2016-11-04	0.028	2
31.0	3.0	2.846	0.0	2016-11-04	0.028	2
32.0	1.0	2.839	0.0	2016-11-04	0.028	2
33.0	3.0	2.741	0.0	2016-11-04	0.028	2
34.0	1.0	2.85	0.0	2016-11-04	0.028	2
35.0	1.0	2.886	0.0	2016-11-04	0.028	2
36.0	3.0	2.931	0.0	2016-11-04	0.028	2
37.0	3.0	2.897	0.0	2016-11-04	0.028	2
38.0	3.0	2.91	0.0	2016-11-04	0.028	2
39.0	0.0	2.97	0.0	2016-11-04	0.028	2
40.0	2.0	2.96	0.0	2016-11-04	0.028	2
41.0	3.0	2.949	0.0	2016-11-04	0.028	2
42.0	3.0	2.957	0.0	2016-11-04	0.028	2
43.0	1.0	2.965	0.0	2016-11-04	0.028	2
44.0	1.0	3.026	0.0	2016-11-04	0.028	2
45.0	1.0	2.954	0.0	2016-11-04	0.028	2
46.0	3.0	2.926	0.0	2016-11-04	0.028	2
47.0	1.0	3.043	0.0	2016-11-04	0.028	2
48.0	3.0	2.896	0.0	2016-11-04	0.028	2
49.0	3.0	2.963	0.0	2016-11-04	0.028	2
50.0	1.0	2.87	0.0	2016-11-04	0.028	2
51.0	3.0	2.925	0.0	2016-11-04	0.028	2
52.0	3.0	2.838	0.0	2016-11-04	0.028	2
53.0	5.0	2.95	0.0	2016-11-04	0.028	2
54.0	3.0	2.888	0.0	2016-11-04	0.028	2
55.0	1.0	2.9	0.0	2016-11-04	0.028	2
56.0	5.0	2.837	0.0	2016-11-04	0.028	2
57.0	1.0	2.939	0.0	2016-11-04	0.028	2
58.0	1.0	2.938	0.0	2016-11-04	0.028	2
59.0	1.0	2.953	0.0	2016-11-04	0.028	2
60.0	1.0	2.975	0.0	2016-11-04	0.028	2
61.0	1.0	2.913	0.0	2016-11-04	0.028	2
62.0	1.0	2.905	0.0	2016-11-04	0.028	2
63.0	3.0	2.873	0.0	2016-11-04	0.028	2
64.0	5.0	2.814	0.0	2016-11-04	0.028	2
0.0	3.0	3.021	0.0	2016-11-04	0.03	2
1.0	1.0	2.975	0.0	2016-11-04	0.03	2
2.0	1.0	3.006	0.0	2016-11-04	0.03	2
3.0	5.0	3.031	0.0	2016-11-04	0.03	2
4.0	1.0	3.028	0.0	2016-11-04	0.03	2
5.0	1.0	2.976	0.0	2016-11-04	0.03	2
6.0	1.0	2.988	0.0	2016-11-04	0.03	2
7.0	3.0	2.959	0.0	2016-11-04	0.03	2
8.0	3.0	3.017	0.0	2016-11-04	0.03	2
9.0	3.0	3.13	0.0	2016-11-04	0.03	2
10.0	1.0	3.045	0.0	2016-11-04	0.03	2
11.0	3.0	3.028	0.0	2016-11-04	0.03	2
12.0	5.0	3.064	0.0	2016-11-04	0.03	2
13.0	0.0	2.99	0.0	2016-11-04	0.03	2
14.0	1.0	3.037	0.0	2016-11-04	0.03	2
15.0	5.0	3.163	0.0	2016-11-04	0.03	2
16.0	3.0	3.12	0.0	2016-11-04	0.03	2
17.0	3.0	3.118	0.0	2016-11-04	0.03	2
18.0	5.0	3.013	0.0	2016-11-04	0.03	2
19.0	3.0	3.077	0.0	2016-11-04	0.03	2
20.0	3.0	3.074	0.0	2016-11-04	0.03	2
21.0	3.0	3.083	0.0	2016-11-04	0.03	2
22.0	1.0	3.121	0.0	2016-11-04	0.03	2
23.0	1.0	3.101	0.0	2016-11-04	0.03	2
24.0	1.0	3.057	0.0	2016-11-04	0.03	2
25.0	1.0	3.132	0.0	2016-11-04	0.03	2
26.0	1.0	3.067	0.0	2016-11-04	0.03	2
27.0	1.0	3.092	0.0	2016-11-04	0.03	2
28.0	3.0	3.129	0.0	2016-11-04	0.03	2
29.0	1.0	3.149	0.0	2016-11-04	0.03	2
30.0	1.0	3.119	0.0	2016-11-04	0.03	2
31.0	1.0	3.104	0.0	2016-11-04	0.03	2
32.0	1.0	3.057	0.0	2016-11-04	0.03	2
33.0	3.0	3.037	0.0	2016-11-04	0.03	2
34.0	1.0	3.126	0.0	2016-11-04	0.03	2
35.0	3.0	3.106	0.0	2016-11-04	0.03	2
36.0	3.0	3.138	0.0	2016-11-04	0.03	2
37.0	1.0	3.116	0.0	2016-11-04	0.03	2
38.0	1.0	3.049	0.0	2016-11-04	0.03	2
39.0	1.0	3.073	0.0	2016-11-04	0.03	2
40.0	1.0	3.156	0.0	2016-11-04	0.03	2
41.0	3.0	3.198	0.0	2016-11-04	0.03	2
42.0	5.0	2.885	0.0	2016-11-04	0.03	2
43.0	1.0	3.105	0.0	2016-11-04	0.03	2
44.0	1.0	3.128	0.0	2016-11-04	0.03	2
45.0	3.0	3.19	0.0	2016-11-04	0.03	2
46.0	3.0	3.164	0.0	2016-11-04	0.03	2
47.0	1.0	3.18	0.0	2016-11-04	0.03	2
48.0	1.0	3.159	0.0	2016-11-04	0.03	2
49.0	5.0	3.123	0.0	2016-11-04	0.03	2
50.0	3.0	2.996	0.0	2016-11-04	0.03	2
51.0	1.0	3.101	0.0	2016-11-04	0.03	2
52.0	3.0	3.179	0.0	2016-11-04	0.03	2
53.0	5.0	3.198	0.0	2016-11-04	0.03	2
54.0	1.0	3.118	0.0	2016-11-04	0.03	2
55.0	1.0	3.178	0.0	2016-11-04	0.03	2
56.0	3.0	3.152	0.0	2016-11-04	0.03	2
57.0	3.0	3.18	0.0	2016-11-04	0.03	2
58.0	1.0	3.162	0.0	2016-11-04	0.03	2
59.0	1.0	3.135	0.0	2016-11-04	0.03	2
60.0	3.0	3.119	0.0	2016-11-04	0.03	2
61.0	0.0	3.21	0.0	2016-11-04	0.03	2
62.0	3.0	3.185	0.0	2016-11-04	0.03	2
63.0	1.0	3.166	0.0	2016-11-04	0.03	2
64.0	1.0	3.121	0.0	2016-11-04	0.03	2
65.0	1.0	3.173	0.0	2016-11-04	0.03	2
66.0	3.0	3.116	0.0	2016-11-04	0.03	2
0.0	1.0	3.305	0.0	2016-11-04	0.032	2
1.0	3.0	3.176	0.0	2016-11-04	0.032	2
2.0	1.0	3.254	0.0	2016-11-04	0.032	2
3.0	1.0	3.249	0.0	2016-11-04	0.032	2
4.0	1.0	3.269	0.0	2016-11-04	0.032	2
5.0	2.0	3.292	0.0	2016-11-04	0.032	2
6.0	1.0	3.36	0.0	2016-11-04	0.032	2
7.0	3.0	3.309	0.0	2016-11-04	0.032	2
8.0	3.0	3.361	0.0	2016-11-04	0.032	2
9.0	1.0	3.377	0.0	2016-11-04	0.032	2
10.0	1.0	3.372	0.0	2016-11-04	0.032	2
11.0	3.0	3.285	0.0	2016-11-04	0.032	2
12.0	1.0	3.332	0.0	2016-11-04	0.032	2
13.0	4.0	3.423	0.0	2016-11-04	0.032	2
14.0	1.0	3.385	0.0	2016-11-04	0.032	2
15.0	1.0	3.247	0.0	2016-11-04	0.032	2
16.0	1.0	3.314	0.0	2016-11-04	0.032	2
17.0	1.0	3.434	0.0	2016-11-04	0.032	2
18.0	1.0	3.292	0.0	2016-11-04	0.032	2
19.0	3.0	3.343	0.0	2016-11-04	0.032	2
20.0	3.0	3.294	0.0	2016-11-04	0.032	2
21.0	1.0	3.338	0.0	2016-11-04	0.032	2
22.0	3.0	3.349	0.0	2016-11-04	0.032	2
23.0	1.0	3.312	0.0	2016-11-04	0.032	2
24.0	1.0	3.26	0.0	2016-11-04	0.032	2
25.0	1.0	3.303	0.0	2016-11-04	0.032	2
26.0	1.0	3.368	0.0	2016-11-04	0.032	2
27.0	5.0	3.307	0.0	2016-11-04	0.032	2
28.0	1.0	3.364	0.0	2016-11-04	0.032	2
29.0	1.0	3.302	0.0	2016-11-04	0.032	2
30.0	1.0	3.371	0.0	2016-11-04	0.032	2
31.0	0.0	3.35	0.0	2016-11-04	0.032	2
32.0	3.0	3.404	0.0	2016-11-04	0.032	2
33.0	1.0	3.399	0.0	2016-11-04	0.032	2
34.0	1.0	3.374	0.0	2016-11-04	0.032	2
35.0	2.0	3.48	0.0	2016-11-04	0.032	2
36.0	1.0	3.408	0.0	2016-11-04	0.032	2
37.0	1.0	3.352	0.0	2016-11-04	0.032	2
38.0	3.0	3.303	0.0	2016-11-04	0.032	2
39.0	1.0	3.431	0.0	2016-11-04	0.032	2
40.0	5.0	3.349	0.0	2016-11-04	0.032	2
41.0	5.0	3.371	0.0	2016-11-04	0.032	2
42.0	1.0	3.456	0.0	2016-11-04	0.032	2
43.0	1.0	3.359	0.0	2016-11-04	0.032	2
44.0	3.0	3.537	0.0	2016-11-04	0.032	2
45.0	3.0	3.573	0.0	2016-11-04	0.032	2
46.0	3.0	3.331	0.0	2016-11-04	0.032	2
47.0	1.0	3.359	0.0	2016-11-04	0.032	2
48.0	1.0	3.465	0.0	2016-11-04	0.032	2
49.0	3.0	3.547	0.0	2016-11-04	0.032	2
50.0	3.0	3.406	0.0	2016-11-04	0.032	2
51.0	1.0	3.45	0.0	2016-11-04	0.032	2
52.0	3.0	3.433	0.0	2016-11-04	0.032	2
53.0	3.0	3.433	0.0	2016-11-04	0.032	2
54.0	1.0	3.462	0.0	2016-11-04	0.032	2
55.0	3.0	3.326	0.0	2016-11-04	0.032	2
56.0	1.0	3.458	0.0	2016-11-04	0.032	2
57.0	1.0	3.324	0.0	2016-11-04	0.032	2
58.0	1.0	3.349	0.0	2016-11-04	0.032	2
59.0	1.0	3.485	0.0	2016-11-04	0.032	2
60.0	1.0	3.432	0.0	2016-11-04	0.032	2
61.0	1.0	3.33	0.0	2016-11-04	0.032	2
62.0	1.0	3.4	0.0	2016-11-04	0.032	2
63.0	1.0	3.326	0.0	2016-11-04	0.032	2
64.0	3.0	3.443	0.0	2016-11-04	0.032	2
65.0	3.0	3.514	0.0	2016-11-04	0.032	2
66.0	5.0	3.343	0.0	2016-11-04	0.032	2
67.0	2.0	3.07	0.0	2016-11-04	0.032	2
68.0	5.0	3.447	0.0	2016-11-04	0.032	2
69.0	1.0	3.335	0.0	2016-11-04	0.032	2
70.0	1.0	3.479	0.0	2016-11-04	0.032	2
0.0	1.0	3.695	0.0	2016-11-04	0.034	2
1.0	3.0	3.576	0.0	2016-11-04	0.034	2
2.0	1.0	3.698	0.0	2016-11-04	0.034	2
3.0	1.0	3.539	0.0	2016-11-04	0.034	2
4.0	3.0	3.616	0.0	2016-11-04	0.034	2
5.0	1.0	3.599	0.0	2016-11-04	0.034	2
6.0	3.0	3.584	0.0	2016-11-04	0.034	2
7.0	3.0	3.631	0.0	2016-11-04	0.034	2
8.0	1.0	3.636	0.0	2016-11-04	0.034	2
9.0	1.0	3.708	0.0	2016-11-04	0.034	2
10.0	3.0	3.699	0.0	2016-11-04	0.034	2
11.0	3.0	3.563	0.0	2016-11-04	0.034	2
12.0	5.0	3.396	0.0	2016-11-04	0.034	2
13.0	1.0	3.737	0.0	2016-11-04	0.034	2
14.0	1.0	3.739	0.0	2016-11-04	0.034	2
15.0	3.0	3.714	0.0	2016-11-04	0.034	2
16.0	3.0	3.725	0.0	2016-11-04	0.034	2
17.0	1.0	3.582	0.0	2016-11-04	0.034	2
18.0	1.0	3.648	0.0	2016-11-04	0.034	2
19.0	3.0	3.823	0.0	2016-11-04	0.034	2
20.0	1.0	3.7	0.0	2016-11-04	0.034	2
21.0	1.0	3.767	0.0	2016-11-04	0.034	2
22.0	3.0	3.813	0.0	2016-11-04	0.034	2
23.0	1.0	3.682	0.0	2016-11-04	0.034	2
24.0	1.0	3.849	0.0	2016-11-04	0.034	2
25.0	3.0	3.829	0.0	2016-11-04	0.034	2
26.0	3.0	3.787	0.0	2016-11-04	0.034	2
27.0	3.0	3.787	0.0	2016-11-04	0.034	2
28.0	1.0	3.808	0.0	2016-11-04	0.034	2
29.0	1.0	3.717	0.0	2016-11-04	0.034	2
30.0	5.0	3.653	0.0	2016-11-04	0.034	2
31.0	1.0	3.746	0.0	2016-11-04	0.034	2
32.0	1.0	3.67	0.0	2016-11-04	0.034	2
33.0	3.0	3.604	0.0	2016-11-04	0.034	2
34.0	5.0	3.644	0.0	2016-11-04	0.034	2
35.0	3.0	3.707	0.0	2016-11-04	0.034	2
36.0	5.0	3.342	0.0	2016-11-04	0.034	2
37.0	5.0	3.621	0.0	2016-11-04	0.034	2
38.0	1.0	3.627	0.0	2016-11-04	0.034	2
39.0	1.0	3.566	0.0	2016-11-04	0.034	2
40.0	3.0	3.583	0.0	2016-11-04	0.034	2
41.0	0.0	3.59	0.0	2016-11-04	0.034	2
42.0	3.0	3.651	0.0	2016-11-04	0.034	2
43.0	1.0	3.736	0.0	2016-11-04	0.034	2
44.0	3.0	3.559	0.0	2016-11-04	0.034	2
45.0	3.0	3.704	0.0	2016-11-04	0.034	2
46.0	1.0	3.588	0.0	2016-11-04	0.034	2
47.0	1.0	3.574	0.0	2016-11-04	0.034	2
48.0	3.0	3.522	0.0	2016-11-04	0.034	2
49.0	1.0	3.513	0.0	2016-11-04	0.034	2
50.0	1.0	3.616	0.0	2016-11-04	0.034	2
51.0	1.0	3.675	0.0	2016-11-04	0.034	2
52.0	3.0	3.61	0.0	2016-11-04	0.034	2
53.0	0.0	3.758	0.0	2016-11-04	0.034	2
54.0	1.0	3.587	0.0	2016-11-04	0.034	2
55.0	1.0	3.622	0.0	2016-11-04	0.034	2
56.0	1.0	3.711	0.0	2016-11-04	0.034	2
57.0	0.0	3.42	0.0	2016-11-04	0.034	2
58.0	1.0	3.703	0.0	2016-11-04	0.034	2
0.0	4.0	0.142	0.0	2016-11-04	0.0015	2
1.0	6.0	0.091	0.0	2016-11-04	0.0015	2
2.0	4.0	0.128	0.0	2016-11-04	0.0015	2
3.0	4.0	0.144	0.0	2016-11-04	0.0015	2
4.0	4.0	0.168	0.0	2016-11-04	0.0015	2
5.0	6.0	0.149	0.0	2016-11-04	0.0015	2
6.0	4.0	0.151	0.0	2016-11-04	0.0015	2
7.0	6.0	0.169	0.0	2016-11-04	0.0015	2
8.0	4.0	0.191	0.0	2016-11-04	0.0015	2
9.0	4.0	0.351	0.0	2016-11-04	0.0015	2
10.0	2.0	0.372	0.0	2016-11-04	0.0015	2
11.0	4.0	0.367	0.0	2016-11-04	0.0015	2
12.0	4.0	0.422	0.0	2016-11-04	0.0015	2
13.0	2.0	0.381	0.0	2016-11-04	0.0015	2
14.0	4.0	0.175	0.0	2016-11-04	0.0015	2
15.0	4.0	0.16	0.0	2016-11-04	0.0015	2
0.0	1.0	3.852	0.0	2016-11-04	0.036	2
1.0	5.0	3.307	0.0	2016-11-04	0.036	2
0.0	4.0	0.367	0.0	2016-11-04	0.002	2
1.0	4.0	0.329	0.0	2016-11-04	0.002	2
0.0	4.0	0.258	0.0	2016-11-04	0.002	2
1.0	0.0	0.21	0.0	2016-11-04	0.002	2
2.0	0.0	0.27	0.0	2016-11-04	0.002	2
3.0	0.0	0.25	0.0	2016-11-04	0.002	2
4.0	0.0	0.22	0.0	2016-11-04	0.002	2
5.0	4.0	0.306	0.0	2016-11-04	0.002	2
6.0	4.0	0.298	0.0	2016-11-04	0.002	2
7.0	0.0	0.31	0.0	2016-11-04	0.002	2
8.0	0.0	0.34	0.0	2016-11-04	0.002	2
0.0	0.0	2.17	0.0	2016-11-04	0.003	2
1.0	0.0	3.52	0.0	2016-11-04	0.003	2
2.0	4.0	0.294	0.0	2016-11-04	0.003	2
3.0	0.0	0.3	0.0	2016-11-04	0.003	2
4.0	0.0	0.3	0.0	2016-11-04	0.003	2
5.0	2.0	0.332	0.0	2016-11-04	0.003	2
6.0	4.0	0.342	0.0	2016-11-04	0.003	2
7.0	6.0	0.331	0.0	2016-11-04	0.003	2
8.0	2.0	0.357	0.0	2016-11-04	0.003	2
9.0	2.0	0.346	0.0	2016-11-04	0.003	2
10.0	4.0	0.364	0.0	2016-11-04	0.003	2
11.0	4.0	0.347	0.0	2016-11-04	0.003	2
12.0	4.0	0.31	0.0	2016-11-04	0.003	2
13.0	4.0	0.325	0.0	2016-11-04	0.003	2
14.0	2.0	0.346	0.0	2016-11-04	0.003	2
15.0	4.0	0.346	0.0	2016-11-04	0.003	2
16.0	2.0	0.355	0.0	2016-11-04	0.003	2
17.0	2.0	0.357	0.0	2016-11-04	0.003	2
18.0	2.0	0.352	0.0	2016-11-04	0.003	2
19.0	4.0	0.343	0.0	2016-11-04	0.003	2
20.0	4.0	0.333	0.0	2016-11-04	0.003	2
21.0	4.0	0.362	0.0	2016-11-04	0.003	2
22.0	2.0	0.295	0.0	2016-11-04	0.003	2
23.0	4.0	0.345	0.0	2016-11-04	0.003	2
24.0	4.0	0.317	0.0	2016-11-04	0.003	2
25.0	4.0	0.307	0.0	2016-11-04	0.003	2
26.0	0.0	0.3	0.0	2016-11-04	0.003	2
27.0	0.0	0.29	0.0	2016-11-04	0.003	2
28.0	4.0	0.306	0.0	2016-11-04	0.003	2
29.0	4.0	0.301	0.0	2016-11-04	0.003	2
30.0	4.0	0.316	0.0	2016-11-04	0.003	2
31.0	4.0	0.294	0.0	2016-11-04	0.003	2
32.0	6.0	0.313	0.0	2016-11-04	0.003	2
33.0	4.0	0.266	0.0	2016-11-04	0.003	2
34.0	6.0	0.35	0.0	2016-11-04	0.003	2
35.0	4.0	0.365	0.0	2016-11-04	0.003	2
36.0	2.0	0.361	0.0	2016-11-04	0.003	2
0.0	3.0	0.424	0.0	2016-11-04	0.004	2
1.0	2.0	0.472	0.0	2016-11-04	0.004	2
2.0	2.0	0.473	0.0	2016-11-04	0.004	2
3.0	2.0	0.454	0.0	2016-11-04	0.004	2
4.0	2.0	0.458	0.0	2016-11-04	0.004	2
5.0	4.0	0.469	0.0	2016-11-04	0.004	2
6.0	4.0	0.458	0.0	2016-11-04	0.004	2
7.0	4.0	0.391	0.0	2016-11-04	0.004	2
8.0	6.0	0.388	0.0	2016-11-04	0.004	2
9.0	4.0	0.421	0.0	2016-11-04	0.004	2
10.0	4.0	0.436	0.0	2016-11-04	0.004	2
11.0	2.0	0.468	0.0	2016-11-04	0.004	2
12.0	0.0	0.49	0.0	2016-11-04	0.004	2
13.0	0.0	0.45	0.0	2016-11-04	0.004	2
14.0	2.0	0.412	0.0	2016-11-04	0.004	2
15.0	2.0	0.395	0.0	2016-11-04	0.004	2
16.0	2.0	0.429	0.0	2016-11-04	0.004	2
17.0	2.0	0.443	0.0	2016-11-04	0.004	2
18.0	3.0	0.433	0.0	2016-11-04	0.004	2
19.0	2.0	0.459	0.0	2016-11-04	0.004	2
20.0	2.0	0.455	0.0	2016-11-04	0.004	2
21.0	4.0	0.448	0.0	2016-11-04	0.004	2
22.0	4.0	0.446	0.0	2016-11-04	0.004	2
23.0	4.0	0.466	0.0	2016-11-04	0.004	2
24.0	2.0	0.467	0.0	2016-11-04	0.004	2
25.0	0.0	0.48	0.0	2016-11-04	0.004	2
26.0	4.0	0.465	0.0	2016-11-04	0.004	2
27.0	4.0	0.467	0.0	2016-11-04	0.004	2
28.0	4.0	0.495	0.0	2016-11-04	0.004	2
29.0	2.0	0.49	0.0	2016-11-04	0.004	2
30.0	2.0	0.51	0.0	2016-11-04	0.004	2
31.0	2.0	0.475	0.0	2016-11-04	0.004	2
0.0	4.0	0.661	0.0	2016-11-04	0.008	2
1.0	4.0	0.712	0.0	2016-11-04	0.008	2
2.0	3.0	0.753	0.0	2016-11-04	0.008	2
3.0	3.0	0.75	0.0	2016-11-04	0.008	2
4.0	5.0	0.774	0.0	2016-11-04	0.008	2
5.0	3.0	0.759	0.0	2016-11-04	0.008	2
6.0	1.0	0.781	0.0	2016-11-04	0.008	2
7.0	1.0	0.769	0.0	2016-11-04	0.008	2
8.0	2.0	0.779	0.0	2016-11-04	0.008	2
9.0	2.0	0.802	0.0	2016-11-04	0.008	2
10.0	2.0	0.764	0.0	2016-11-04	0.008	2
11.0	1.0	0.785	0.0	2016-11-04	0.008	2
12.0	4.0	0.806	0.0	2016-11-04	0.008	2
13.0	4.0	0.792	0.0	2016-11-04	0.008	2
14.0	3.0	0.854	0.0	2016-11-04	0.008	2
15.0	2.0	0.865	0.0	2016-11-04	0.008	2
16.0	3.0	0.839	0.0	2016-11-04	0.008	2
17.0	3.0	0.849	0.0	2016-11-04	0.008	2
18.0	1.0	0.836	0.0	2016-11-04	0.008	2
19.0	2.0	0.761	0.0	2016-11-04	0.008	2
20.0	3.0	0.844	0.0	2016-11-04	0.008	2
21.0	4.0	0.905	0.0	2016-11-04	0.008	2
22.0	3.0	0.866	0.0	2016-11-04	0.008	2
23.0	3.0	0.873	0.0	2016-11-04	0.008	2
24.0	0.0	0.89	0.0	2016-11-04	0.008	2
25.0	2.0	0.83	0.0	2016-11-04	0.008	2
26.0	6.0	0.893	0.0	2016-11-04	0.008	2
27.0	2.0	0.866	0.0	2016-11-04	0.008	2
28.0	2.0	0.833	0.0	2016-11-04	0.008	2
29.0	3.0	0.847	0.0	2016-11-04	0.008	2
30.0	2.0	0.832	0.0	2016-11-04	0.008	2
31.0	6.0	0.837	0.0	2016-11-04	0.008	2
32.0	3.0	0.81	0.0	2016-11-04	0.008	2
33.0	2.0	0.762	0.0	2016-11-04	0.008	2
34.0	3.0	0.808	0.0	2016-11-04	0.008	2
35.0	3.0	0.821	0.0	2016-11-04	0.008	2
36.0	2.0	0.835	0.0	2016-11-04	0.008	2
37.0	1.0	0.796	0.0	2016-11-04	0.008	2
38.0	4.0	0.8	0.0	2016-11-04	0.008	2
39.0	3.0	0.742	0.0	2016-11-04	0.008	2
40.0	3.0	0.739	0.0	2016-11-04	0.008	2
41.0	3.0	0.76	0.0	2016-11-04	0.008	2
42.0	4.0	0.904	0.0	2016-11-04	0.008	2
43.0	3.0	0.839	0.0	2016-11-04	0.008	2
44.0	2.0	0.832	0.0	2016-11-04	0.008	2
45.0	3.0	0.823	0.0	2016-11-04	0.008	2
46.0	2.0	0.845	0.0	2016-11-04	0.008	2
47.0	5.0	0.783	0.0	2016-11-04	0.008	2
48.0	2.0	0.802	0.0	2016-11-04	0.008	2
49.0	3.0	0.755	0.0	2016-11-04	0.008	2
50.0	3.0	0.745	0.0	2016-11-04	0.008	2
51.0	2.0	0.807	0.0	2016-11-04	0.008	2
52.0	1.0	0.77	0.0	2016-11-04	0.008	2
53.0	3.0	0.812	0.0	2016-11-04	0.008	2
54.0	2.0	0.819	0.0	2016-11-04	0.008	2
55.0	2.0	0.822	0.0	2016-11-04	0.008	2
0.0	1.0	1.061	0.0	2016-11-04	0.012	2
1.0	3.0	1.11	0.0	2016-11-04	0.012	2
2.0	3.0	1.151	0.0	2016-11-04	0.012	2
3.0	3.0	1.135	0.0	2016-11-04	0.012	2
4.0	2.0	1.189	0.0	2016-11-04	0.012	2
5.0	3.0	1.177	0.0	2016-11-04	0.012	2
6.0	0.0	1.13	0.0	2016-11-04	0.012	2
7.0	2.0	1.213	0.0	2016-11-04	0.012	2
8.0	1.0	1.162	0.0	2016-11-04	0.012	2
9.0	3.0	1.224	0.0	2016-11-04	0.012	2
10.0	2.0	1.261	0.0	2016-11-04	0.012	2
11.0	2.0	1.266	0.0	2016-11-04	0.012	2
12.0	5.0	1.049	0.0	2016-11-04	0.012	2
13.0	3.0	1.207	0.0	2016-11-04	0.012	2
14.0	1.0	1.201	0.0	2016-11-04	0.012	2
15.0	3.0	1.202	0.0	2016-11-04	0.012	2
16.0	2.0	1.28	0.0	2016-11-04	0.012	2
17.0	2.0	1.308	0.0	2016-11-04	0.012	2
18.0	1.0	1.262	0.0	2016-11-04	0.012	2
19.0	3.0	1.271	0.0	2016-11-04	0.012	2
20.0	1.0	1.253	0.0	2016-11-04	0.012	2
21.0	3.0	1.262	0.0	2016-11-04	0.012	2
22.0	5.0	1.26	0.0	2016-11-04	0.012	2
23.0	6.0	1.241	0.0	2016-11-04	0.012	2
24.0	3.0	1.213	0.0	2016-11-04	0.012	2
25.0	1.0	1.204	0.0	2016-11-04	0.012	2
26.0	2.0	1.262	0.0	2016-11-04	0.012	2
27.0	2.0	1.258	0.0	2016-11-04	0.012	2
28.0	1.0	1.225	0.0	2016-11-04	0.012	2
29.0	1.0	1.216	0.0	2016-11-04	0.012	2
30.0	3.0	1.227	0.0	2016-11-04	0.012	2
31.0	3.0	1.207	0.0	2016-11-04	0.012	2
32.0	2.0	1.255	0.0	2016-11-04	0.012	2
33.0	3.0	1.249	0.0	2016-11-04	0.012	2
34.0	4.0	1.295	0.0	2016-11-04	0.012	2
35.0	2.0	1.202	0.0	2016-11-04	0.012	2
36.0	4.0	1.311	0.0	2016-11-04	0.012	2
37.0	1.0	1.229	0.0	2016-11-04	0.012	2
38.0	3.0	1.208	0.0	2016-11-04	0.012	2
39.0	3.0	1.219	0.0	2016-11-04	0.012	2
40.0	1.0	1.224	0.0	2016-11-04	0.012	2
41.0	1.0	1.226	0.0	2016-11-04	0.012	2
42.0	3.0	1.239	0.0	2016-11-04	0.012	2
43.0	1.0	1.206	0.0	2016-11-04	0.012	2
44.0	3.0	1.233	0.0	2016-11-04	0.012	2
0.0	3.0	1.256	0.0	2016-11-04	0.014	2
1.0	3.0	1.293	0.0	2016-11-04	0.014	2
2.0	1.0	1.318	0.0	2016-11-04	0.014	2
3.0	3.0	1.319	0.0	2016-11-04	0.014	2
4.0	3.0	1.327	0.0	2016-11-04	0.014	2
5.0	3.0	1.35	0.0	2016-11-04	0.014	2
6.0	3.0	1.378	0.0	2016-11-04	0.014	2
7.0	0.0	1.41	0.0	2016-11-04	0.014	2
8.0	3.0	1.422	0.0	2016-11-04	0.014	2
9.0	3.0	1.421	0.0	2016-11-04	0.014	2
10.0	3.0	1.453	0.0	2016-11-04	0.014	2
11.0	2.0	1.515	0.0	2016-11-04	0.014	2
12.0	3.0	1.433	0.0	2016-11-04	0.014	2
13.0	3.0	1.416	0.0	2016-11-04	0.014	2
14.0	2.0	1.444	0.0	2016-11-04	0.014	2
15.0	3.0	1.423	0.0	2016-11-04	0.014	2
16.0	2.0	1.41	0.0	2016-11-04	0.014	2
17.0	3.0	1.428	0.0	2016-11-04	0.014	2
18.0	3.0	1.431	0.0	2016-11-04	0.014	2
19.0	2.0	1.498	0.0	2016-11-04	0.014	2
20.0	2.0	1.552	0.0	2016-11-04	0.014	2
21.0	0.0	1.42	0.0	2016-11-04	0.014	2
22.0	3.0	1.502	0.0	2016-11-04	0.014	2
23.0	1.0	1.437	0.0	2016-11-04	0.014	2
24.0	0.0	1.42	0.0	2016-11-04	0.014	2
25.0	3.0	1.409	0.0	2016-11-04	0.014	2
26.0	3.0	1.387	0.0	2016-11-04	0.014	2
27.0	3.0	1.445	0.0	2016-11-04	0.014	2
28.0	1.0	1.442	0.0	2016-11-04	0.014	2
29.0	3.0	1.419	0.0	2016-11-04	0.014	2
30.0	3.0	1.459	0.0	2016-11-04	0.014	2
31.0	2.0	1.46	0.0	2016-11-04	0.014	2
32.0	2.0	1.443	0.0	2016-11-04	0.014	2
33.0	1.0	1.494	0.0	2016-11-04	0.014	2
34.0	3.0	1.411	0.0	2016-11-04	0.014	2
35.0	3.0	1.363	0.0	2016-11-04	0.014	2
36.0	3.0	1.408	0.0	2016-11-04	0.014	2
37.0	3.0	1.392	0.0	2016-11-04	0.014	2
38.0	3.0	1.443	0.0	2016-11-04	0.014	2
39.0	3.0	1.434	0.0	2016-11-04	0.014	2
0.0	2.0	0.705	0.0	2016-11-04	0.006	2
1.0	2.0	0.645	0.0	2016-11-04	0.006	2
2.0	4.0	0.68	0.0	2016-11-04	0.006	2
3.0	2.0	0.676	0.0	2016-11-04	0.006	2
4.0	2.0	0.681	0.0	2016-11-04	0.006	2
5.0	0.0	0.616	0.0	2016-11-04	0.006	2
6.0	2.0	0.691	0.0	2016-11-04	0.006	2
7.0	4.0	0.629	0.0	2016-11-04	0.006	2
8.0	2.0	0.657	0.0	2016-11-04	0.006	2
9.0	2.0	0.638	0.0	2016-11-04	0.006	2
10.0	2.0	0.641	0.0	2016-11-04	0.006	2
11.0	0.0	0.64	0.0	2016-11-04	0.006	2
12.0	2.0	0.649	0.0	2016-11-04	0.006	2
13.0	0.0	0.65	0.0	2016-11-04	0.006	2
14.0	0.0	0.67	0.0	2016-11-04	0.006	2
15.0	3.0	0.62	0.0	2016-11-04	0.006	2
16.0	0.0	0.66	0.0	2016-11-04	0.006	2
17.0	2.0	0.627	0.0	2016-11-04	0.006	2
18.0	0.0	0.59	0.0	2016-11-04	0.006	2
19.0	2.0	0.588	0.0	2016-11-04	0.006	2
20.0	0.0	0.56	0.0	2016-11-04	0.006	2
21.0	3.0	0.531	0.0	2016-11-04	0.006	2
22.0	4.0	0.612	0.0	2016-11-04	0.006	2
23.0	4.0	0.615	0.0	2016-11-04	0.006	2
24.0	0.0	0.61	0.0	2016-11-04	0.006	2
25.0	0.0	0.62	0.0	2016-11-04	0.006	2
26.0	2.0	0.602	0.0	2016-11-04	0.006	2
27.0	2.0	0.577	0.0	2016-11-04	0.006	2
28.0	0.0	0.61	0.0	2016-11-04	0.006	2
29.0	0.0	0.52	0.0	2016-11-04	0.006	2
30.0	0.0	0.65	0.0	2016-11-04	0.006	2
31.0	2.0	0.586	0.0	2016-11-04	0.006	2
32.0	2.0	0.598	0.0	2016-11-04	0.006	2
33.0	4.0	0.615	0.0	2016-11-04	0.006	2
34.0	4.0	0.627	0.0	2016-11-04	0.006	2
35.0	3.0	0.583	0.0	2016-11-04	0.006	2
36.0	6.0	0.546	0.0	2016-11-04	0.006	2
37.0	0.0	0.56	0.0	2016-11-04	0.006	2
38.0	0.0	0.58	0.0	2016-11-04	0.006	2
39.0	4.0	0.567	0.0	2016-11-04	0.006	2
40.0	4.0	0.539	0.0	2016-11-04	0.006	2
41.0	4.0	0.594	0.0	2016-11-04	0.006	2
